riscv_sobel_miiudp_ov5640/.Xil/Vivado-13392-DESKTOP-IRRHKJS/hw_ila_data_1/zip_work/waveform.vcd
$date
        2021-Jun-02 19:47:16
$end
$version
        Vivado v2019.1 (64-bit)
$end
$timescale
        1ps
$end
$scope module dut $end
$var reg 16 " cis_sobel_i/DVP_Capture_0_DataPixel [15:0] $end
$var reg 8 2 cis_sobel_i/icb_sobel_0_data_gray_out [7:0] $end
$var reg 1 : cis_sobel_i/DVP_Capture_0_DataValid $end
$var reg 1 ; u_ila_0_icb_sobel_0_wr_gray_en $end
$var reg 1 < _TRIGGER $end
$var reg 1 = _WINDOW $end
$var reg 1 > _GAP $end
$upscope $end
$enddefinitions $end
#0
$dumpvars
b10001001000011 "
b100001 2
0:
0;
0<
1=
0>
$end
#512
1<
#734
b10001010100110 "
1:
#735
0:
#736
b1000101 2
1:
1;
#737
b10101010100110 "
0:
0;
#738
1:
1;
#739
0:
0;
#740
b1000111 2
1:
1;
#741
b10001010100110 "
0:
0;
#742
b10001010000110 "
1:
1;
#743
0:
0;
#744
b1000010 2
1:
1;
#745
0:
0;
#746
b10001010100101 "
1:
1;
#747
0:
0;
#748
b1000100 2
1:
1;
#749
0:
0;
#750
b10001010000110 "
1:
1;
#751
0:
0;
#752
b1000010 2
1:
1;
#753
0:
0;
#754
b10001010000111 "
1:
1;
#755
0:
0;
#756
b1000011 2
1:
1;
#757
b10101010000111 "
0:
0;
#758
b10101010000110 "
1:
1;
#759
0:
0;
#760
b1000101 2
1:
1;
#761
b10001010000110 "
0:
0;
#762
1:
1;
#763
0:
0;
#764
b1000010 2
1:
1;
#765
0:
0;
#766
1:
1;
#767
0:
0;
#768
1:
1;
#769
0:
0;
#770
b10001010100110 "
1:
1;
#771
0:
0;
#772
b1000101 2
1:
1;
#773
b10101010100110 "
0:
0;
#774
b10101010000101 "
1:
1;
#775
0:
0;
#776
b10101010100101 "
b1000100 2
1:
1;
#777
0:
0;
#778
b10101010100110 "
b1000110 2
1:
1;
#779
0:
0;
#780
b10101010000110 "
b1000111 2
1:
1;
#781
0:
0;
#782
b1000101 2
1:
1;
#783
0:
0;
#784
1:
1;
#785
0:
0;
#786
b10101001100110 "
1:
1;
#787
0:
0;
#788
b1000010 2
1:
1;
#789
b10001001100110 "
0:
0;
#790
b10001010100110 "
1:
1;
#791
0:
0;
#792
b1000101 2
1:
1;
#793
b10101010100110 "
0:
0;
#794
b10101010000110 "
1:
1;
#795
0:
0;
#796
1:
1;
#797
0:
0;
#798
b10101001100110 "
1:
1;
#799
b10001001100110 "
0:
0;
#800
b1000010 2
1:
1;
#801
0:
0;
#802
b1000000 2
1:
1;
#803
0:
0;
#804
1:
1;
#805
b10101001100110 "
0:
0;
#806
1:
1;
#807
0:
0;
#808
b10101010000110 "
b1000010 2
1:
1;
#809
0:
0;
#810
b1000101 2
1:
1;
#811
0:
0;
#812
1:
1;
#813
0:
0;
#814
b10101010000101 "
1:
1;
#815
b10001010000101 "
0:
0;
#816
b10001001100101 "
b1000100 2
1:
1;
#817
b10101001100101 "
0:
0;
#818
b111111 2
1:
1;
#819
0:
0;
#820
b1000001 2
1:
1;
#821
0:
0;
#822
1:
1;
#823
0:
0;
#824
b10101001000101 "
1:
1;
#825
0:
0;
#826
b111111 2
1:
1;
#827
0:
0;
#828
b10101001100110 "
1:
1;
#829
0:
0;
#830
b10101001000110 "
b1000010 2
1:
1;
#831
0:
0;
#832
b1000000 2
1:
1;
#833
b10001001000110 "
0:
0;
#834
b10001001100101 "
1:
1;
#835
0:
0;
#836
b111111 2
1:
1;
#837
0:
0;
#838
1:
1;
#839
0:
0;
#840
b10001001100110 "
1:
1;
#841
b10101001100110 "
0:
0;
#842
b10101001100101 "
b1000000 2
1:
1;
#843
0:
0;
#844
b1000001 2
1:
1;
#845
0:
0;
#846
1:
1;
#847
0:
0;
#848
1:
1;
#849
0:
0;
#850
b10101001100110 "
1:
1;
#851
0:
0;
#852
b1000010 2
1:
1;
#853
b10001001100110 "
0:
0;
#854
b10001010000101 "
1:
1;
#855
0:
0;
#856
b1000001 2
1:
1;
#857
0:
0;
#858
b10001010000110 "
1:
1;
#859
0:
0;
#860
b1000010 2
1:
1;
#861
0:
0;
#862
1:
1;
#863
0:
0;
#864
1:
1;
#865
b10101010000110 "
0:
0;
#866
b10101001100110 "
1:
1;
#867
0:
0;
#868
1:
1;
#869
0:
0;
#870
1:
1;
#871
0:
0;
#872
1:
1;
#873
b10001001100110 "
0:
0;
#874
1:
1;
#875
0:
0;
#876
b1000000 2
1:
1;
#877
0:
0;
#878
1:
1;
#879
0:
0;
#880
1:
1;
#881
0:
0;
#882
b10001001100111 "
1:
1;
#883
0:
0;
#884
b1000001 2
1:
1;
#885
b10101001100111 "
0:
0;
#886
1:
1;
#887
0:
0;
#888
b1000011 2
1:
1;
#889
0:
0;
#890
b10101010000110 "
1:
1;
#891
b10001010000110 "
0:
0;
#892
b1000101 2
1:
1;
#893
b10101010000110 "
0:
0;
#894
b10101001100111 "
b1000010 2
1:
1;
#895
0:
0;
#896
b1000011 2
1:
1;
#897
0:
0;
#898
b10101001100110 "
1:
1;
#899
0:
0;
#900
b1000010 2
1:
1;
#901
0:
0;
#902
b10101010000110 "
1:
1;
#903
0:
0;
#904
b10101001100110 "
b1000101 2
1:
1;
#905
0:
0;
#906
b10101010000110 "
b1000010 2
1:
1;
#907
0:
0;
#908
b1000101 2
1:
1;
#909
0:
0;
#910
b10101010000101 "
1:
1;
#911
0:
0;
#912
b10101010100110 "
b1000100 2
1:
1;
#913
0:
0;
#914
b1000111 2
1:
1;
#915
0:
0;
#916
b10101010000110 "
1:
1;
#917
0:
0;
#918
b10101010000111 "
b1000101 2
1:
1;
#919
0:
0;
#920
1:
1;
#921
b11001010000111 "
0:
0;
#922
b11001010100111 "
1:
1;
#923
0:
0;
#924
b11001011000111 "
b1001010 2
1:
1;
#925
0:
0;
#926
b11001010100111 "
b1001101 2
1:
1;
#927
b10101010100111 "
0:
0;
#928
b1001010 2
1:
1;
#929
0:
0;
#930
b10101010000111 "
b1001000 2
1:
1;
#931
0:
0;
#932
b1000101 2
1:
1;
#933
0:
0;
#934
b10101010100111 "
1:
1;
#935
0:
0;
#936
b10101010000111 "
b1001000 2
1:
1;
#937
0:
0;
#938
b10101010000110 "
b1000101 2
1:
1;
#939
0:
0;
#940
b10101010100111 "
1:
1;
#941
0:
0;
#942
b10101010100110 "
b1001000 2
1:
1;
#943
0:
0;
#944
b1000111 2
1:
1;
#945
0:
0;
#946
b10101010100111 "
1:
1;
#947
0:
0;
#948
b1001000 2
1:
1;
#949
b11001010100111 "
0:
0;
#950
b11001010001000 "
1:
1;
#951
0:
0;
#952
b1001001 2
1:
1;
#953
b10101010001000 "
0:
0;
#954
b10101010100111 "
1:
1;
#955
0:
0;
#956
b1001000 2
1:
1;
#957
b11001010100111 "
0:
0;
#958
1:
1;
#959
0:
0;
#960
b1001010 2
1:
1;
#961
b10101010100111 "
0:
0;
#962
b10101011001000 "
1:
1;
#963
0:
0;
#964
b10101010101000 "
b1001011 2
1:
1;
#965
0:
0;
#966
b10101010100110 "
b1001001 2
1:
1;
#967
0:
0;
#968
b1000111 2
1:
1;
#969
b11001010100110 "
0:
0;
#970
b11001011000111 "
1:
1;
#971
0:
0;
#972
b1001101 2
1:
1;
#973
0:
0;
#974
b11001010100111 "
1:
1;
#975
0:
0;
#976
b1001010 2
1:
1;
#977
b10101010100111 "
0:
0;
#978
b10101011000111 "
1:
1;
#979
0:
0;
#980
1:
1;
#981
0:
0;
#982
1:
1;
#983
0:
0;
#984
1:
1;
#985
0:
0;
#986
b10101010101000 "
1:
1;
#987
0:
0;
#988
b1001001 2
1:
1;
#989
b11001010101000 "
0:
0;
#990
b11001010100111 "
1:
1;
#991
0:
0;
#992
b11001011000111 "
b1001010 2
1:
1;
#993
0:
0;
#994
b11001011001000 "
b1001101 2
1:
1;
#995
0:
0;
#996
1:
1;
#997
0:
0;
#998
1:
1;
#999
0:
0;
#1000
b11001010100111 "
1:
1;
#1001
0:
0;
#1002
b11001011000111 "
b1001010 2
1:
1;
#1003
0:
0;
#1004
b1001101 2
1:
1;
#1005
0:
0;
#1006
1:
1;
#1007
0:
0;
#1008
1:
1;
#1009
0:
0;
#1010
b11001011001000 "
1:
1;
#1011
0:
0;
#1012
b11001010101000 "
1:
1;
#1013
b10101010101000 "
0:
0;
#1014
b10101011100111 "
b1001011 2
1:
1;
#1015
0:
0;
#1016
b1001101 2
1:
1;
#1017
b11001011100111 "
0:
0;
#1018
b11001011001000 "
1:
1;
#1019
0:
0;
#1020
1:
1;
#1021
0:
0;
#1022
b11001010101000 "
1:
1;
#1023
0:
0;
