riscv_sobel_miiudp_ov5640/.Xil/Vivado-13392-DESKTOP-IRRHKJS/hw_ila_data_2/zip_work/waveform.vcd
$date
        2021-Jun-02 20:20:58
$end
$version
        Vivado v2019.1 (64-bit)
$end
$timescale
        1ps
$end
$scope module dut $end
$var reg 8 " cis_sobel_i/fifo_generator_0_dout [7:0] $end
$var reg 16 * cis_sobel_i/icb_sobel_0_data_rgb_out [15:0] $end
$var reg 1 : cis_sobel_i/fifo_generator_0_empty $end
$var reg 1 ; cis_sobel_i/icb_sobel_0_rd_gray_en $end
$var reg 1 < cis_sobel_i/icb_sobel_0_wr_rgb_en $end
$var reg 1 = _TRIGGER $end
$var reg 1 > _WINDOW $end
$var reg 1 ? _GAP $end
$upscope $end
$enddefinitions $end
#0
$dumpvars
b10011000 "
b1111111111111111 *
0:
1;
0<
0=
1>
0?
$end
#1
b10011010 "
b0 *
1:
1<
#2
0:
0<
#3
1:
1<
#4
0:
0<
#5
1:
1<
#6
0:
0<
#7
b10011101 "
1:
1<
#8
0:
0<
#9
1:
1<
#10
0<
#11
0:
1<
#12
1:
0<
#13
0:
#14
b10011111 "
1:
1<
#15
0:
0<
#16
b10100101 "
1:
1<
#17
0:
0<
#18
b10100111 "
1:
1<
#19
0:
0<
#20
b10101111 "
1:
1<
#21
0:
0<
#22
b10110010 "
1:
1<
#23
0:
0<
#24
b10110101 "
1:
1<
#25
0:
0<
#26
b10111000 "
1:
1<
#27
0:
0<
#28
b10111001 "
1:
1<
#29
0:
0<
#30
b10111101 "
1:
1<
#31
0<
#32
0:
1<
#33
1:
0<
#34
0:
#35
1:
1<
#36
0:
0<
#37
b1111111111111111 *
1:
1<
#38
0:
0<
#39
b11000000 "
1:
1<
#40
0:
0<
#41
b0 *
1:
1<
#42
0:
0<
#43
b1111111111111111 *
1:
1<
#44
0:
0<
#45
1:
1<
#46
0:
0<
#47
1:
1<
#48
0:
0<
#49
1:
1<
#50
0:
0<
#51
b0 *
1:
1<
#52
0<
#53
b1111111111111111 *
0:
1<
#54
1:
0<
#55
0:
#56
1:
1<
#57
0:
0<
#58
1:
1<
#59
0:
0<
#60
1:
1<
#61
0:
0<
#62
1:
1<
#63
0:
0<
#64
1:
1<
#65
0:
0<
#66
1:
1<
#67
0:
0<
#68
b10111101 "
1:
1<
#69
0:
0<
#70
1:
1<
#71
0:
0<
#72
b11000000 "
1:
1<
#73
0<
#74
0:
1<
#75
1:
0<
#76
0:
#77
1:
1<
#78
0:
0<
#79
b0 *
1:
1<
#80
0:
0<
#81
b1111111111111111 *
1:
1<
#82
0:
0<
#83
1:
1<
#84
0:
0<
#85
b10111101 "
b0 *
1:
1<
#86
0:
0<
#87
1:
1<
#88
0:
0<
#89
b10111010 "
b1111111111111111 *
1:
1<
#90
0:
0<
#91
1:
1<
#92
0:
0<
#93
b10111011 "
1:
1<
#94
0<
#95
0:
1<
#96
b10111010 "
1:
0<
#97
0:
#98
1:
1<
#99
0:
0<
#100
1:
1<
#101
0:
0<
#102
b10111000 "
1:
1<
#103
0:
0<
#104
b0 *
1:
1<
#105
0:
0<
#106
b10110101 "
b1111111111111111 *
1:
1<
#107
0:
0<
#108
1:
1<
#109
0:
0<
#110
1:
1<
#111
0:
0<
#112
1:
1<
#113
0:
0<
#114
1:
1<
#115
0<
#116
0:
1<
#117
b10110010 "
1:
0<
#118
0:
#119
1:
1<
#120
0:
0<
#121
b10110000 "
1:
1<
#122
0:
0<
#123
b10101101 "
1:
1<
#124
0:
0<
#125
b10101010 "
1:
1<
#126
0:
0<
#127
b10101000 "
1:
1<
#128
0:
0<
#129
b10100101 "
1:
1<
#130
0:
0<
#131
1:
1<
#132
0:
0<
#133
b10100010 "
1:
1<
#134
0:
0<
#135
1:
1<
#136
0<
#137
0:
1<
#138
b10100000 "
1:
0<
#139
0:
#140
1:
1<
#141
0:
0<
#142
1:
1<
#143
0:
0<
#144
1:
1<
#145
0:
0<
#146
1:
1<
#147
0:
0<
#148
1:
1<
#149
0:
0<
#150
1:
1<
#151
0:
0<
#152
1:
1<
#153
0:
0<
#154
1:
1<
#155
0:
0<
#156
b10100010 "
1:
1<
#157
0<
#158
0:
1<
#159
1:
0<
#160
0:
#161
b10100011 "
1:
1<
#162
0:
0<
#163
b10100101 "
1:
1<
#164
0:
0<
#165
b10101000 "
1:
1<
#166
0:
0<
#167
b10101010 "
b0 *
1:
1<
#168
0:
0<
#169
b10101011 "
b1111111111111111 *
1:
1<
#170
0:
0<
#171
b10101101 "
1:
1<
#172
0:
0<
#173
b10110011 "
b0 *
1:
1<
#174
0:
0<
#175
b10110101 "
1:
1<
#176
0:
0<
#177
b10111000 "
b1111111111111111 *
1:
1<
#178
0<
#179
0:
1<
#180
1:
0<
#181
0:
#182
1:
1<
#183
0:
0<
#184
b10111011 "
1:
1<
#185
0:
0<
#186
b10111010 "
b0 *
1:
1<
#187
0:
0<
#188
b10111101 "
1:
1<
#189
0:
0<
#190
b10111110 "
b1111111111111111 *
1:
1<
#191
0:
0<
#192
b11000000 "
1:
1<
#193
0:
0<
#194
1:
1<
#195
0:
0<
#196
b0 *
1:
1<
#197
0:
0<
#198
1:
1<
#199
0<
#200
b1111111111111111 *
0:
1<
#201
1:
0<
#202
0:
#203
1:
1<
#204
0:
0<
#205
1:
1<
#206
0:
0<
#207
1:
1<
#208
0:
0<
#209
1:
1<
#210
0:
0<
#211
b10111101 "
1:
1<
#212
0:
0<
#213
1:
1<
#214
0:
0<
#215
b11000000 "
1:
1<
#216
0:
0<
#217
1:
1<
#218
0:
0<
#219
1:
1<
#220
0<
#221
0:
1<
#222
b11000010 "
1:
0<
#223
0:
#224
1:
1<
#225
0:
0<
#226
1:
1<
#227
0:
0<
#228
b11000000 "
1:
1<
#229
0:
0<
#230
b11000010 "
1:
1<
#231
0:
0<
#232
b0 *
1:
1<
#233
0:
0<
#234
b1111111111111111 *
1:
1<
#235
0:
0<
#236
b0 *
1:
1<
#237
0:
0<
#238
b1111111111111111 *
1:
1<
#239
0:
0<
#240
b11000000 "
b0 *
1:
1<
#241
0<
#242
0:
1<
#243
1:
0<
#244
0:
#245
b11000010 "
1:
1<
#246
0:
0<
#247
1:
1<
#248
0:
0<
#249
b11000000 "
1:
1<
#250
0:
0<
#251
b11000010 "
1:
1<
#252
0:
0<
#253
1:
1<
#254
0:
0<
#255
1:
1<
#256
0:
0<
#257
1:
1<
#258
0:
0<
#259
1:
1<
#260
0:
0<
#261
b11000000 "
1:
1<
#262
0<
#263
0:
1<
#264
1:
0<
#265
0:
#266
1:
1<
#267
0:
0<
#268
1:
1<
#269
0:
0<
#270
1:
1<
#271
0:
0<
#272
b11000010 "
1:
1<
#273
0:
0<
#274
b11000000 "
1:
1<
#275
0:
0<
#276
1:
1<
#277
0:
0<
#278
1:
1<
#279
0:
0<
#280
1:
1<
#281
0:
0<
#282
1:
1<
#283
0<
#284
b1111111111111111 *
0:
1<
#285
1:
0<
#286
0:
#287
b11000010 "
1:
1<
#288
0:
0<
#289
b0 *
1:
1<
#290
0:
0<
#291
b11000000 "
1:
1<
#292
0:
0<
#293
1:
1<
#294
0:
0<
#295
1:
1<
#296
0:
0<
#297
1:
1<
#298
0:
0<
#299
1:
1<
#300
0:
0<
#301
1:
1<
#302
0:
0<
#303
b1111111111111111 *
1:
1<
#304
0<
#305
0:
1<
#306
1:
0<
#307
0:
#308
1:
1<
#309
0:
0<
#310
1:
1<
#311
0:
0<
#312
1:
1<
#313
0:
0<
#314
1:
1<
#315
0:
0<
#316
1:
1<
#317
0:
0<
#318
1:
1<
#319
0:
0<
#320
b10111101 "
1:
1<
#321
0:
0<
#322
1:
1<
#323
0:
0<
#324
b11000000 "
1:
1<
#325
0<
#326
0:
1<
#327
1:
0<
#328
0:
#329
b10111110 "
1:
1<
#330
0:
0<
#331
1:
1<
#332
0:
0<
#333
b11000000 "
1:
1<
#334
0:
0<
#335
1:
1<
#336
0:
0<
#337
1:
1<
#338
0:
0<
#339
1:
1<
#340
0:
0<
#341
1:
1<
#342
0:
0<
#343
1:
1<
#344
0:
0<
#345
1:
1<
#346
0<
#347
0:
1<
#348
1:
0<
#349
0:
#350
b10111101 "
1:
1<
#351
0:
0<
#352
1:
1<
#353
0:
0<
#354
b11000000 "
1:
1<
#355
0:
0<
#356
1:
1<
#357
0:
0<
#358
1:
1<
#359
0:
0<
#360
1:
1<
#361
0:
0<
#362
b10111110 "
1:
1<
#363
0:
0<
#364
b0 *
1:
1<
#365
0:
0<
#366
b11000000 "
1:
1<
#367
0<
#368
0:
1<
#369
1:
0<
#370
0:
#371
1:
1<
#372
0:
0<
#373
1:
1<
#374
0:
0<
#375
b10111101 "
1:
1<
#376
0:
0<
#377
1:
1<
#378
0:
0<
#379
b10111011 "
b1111111111111111 *
1:
1<
#380
0:
0<
#381
b11000000 "
1:
1<
#382
0:
0<
#383
b10111110 "
1:
1<
#384
0:
0<
#385
1:
1<
#386
0:
0<
#387
b10111101 "
1:
1<
#388
0<
#389
0:
1<
#390
1:
0<
#391
0:
#392
1:
1<
#393
0:
0<
#394
1:
1<
#395
0:
0<
#396
1:
1<
#397
0:
0<
#398
b10111010 "
1:
1<
#399
0:
0<
#400
b10111101 "
1:
1<
#401
0:
0<
#402
1:
1<
#403
0:
0<
#404
1:
1<
#405
0:
0<
#406
1:
1<
#407
0:
0<
#408
b10111011 "
1:
1<
#409
0<
#410
0:
1<
#411
1:
0<
#412
0:
#413
b10111101 "
1:
1<
#414
0:
0<
#415
1:
1<
#416
0:
0<
#417
b10111010 "
1:
1<
#418
0:
0<
#419
1:
1<
#420
0:
0<
#421
b10111011 "
1:
1<
#422
0:
0<
#423
1:
1<
#424
0:
0<
#425
b10111010 "
1:
1<
#426
0:
0<
#427
1:
1<
#428
0:
0<
#429
1:
1<
#430
0<
#431
0:
1<
#432
1:
0<
#433
0:
#434
1:
1<
#435
0:
0<
#436
1:
1<
#437
0:
0<
#438
1:
1<
#439
0:
0<
#440
1:
1<
#441
0:
0<
#442
1:
1<
#443
0:
0<
#444
1:
1<
#445
0:
0<
#446
1:
1<
#447
0:
0<
#448
1:
1<
#449
0:
0<
#450
1:
1<
#451
0<
#452
0:
1<
#453
b10111000 "
1:
0<
#454
0:
#455
b10111010 "
1:
1<
#456
0:
0<
#457
1:
1<
#458
0:
0<
#459
1:
1<
#460
0:
0<
#461
1:
1<
#462
0:
0<
#463
1:
1<
#464
0:
0<
#465
1:
1<
#466
0:
0<
#467
b10111000 "
1:
1<
#468
0:
0<
#469
1:
1<
#470
0:
0<
#471
1:
1<
#472
0<
#473
0:
1<
#474
1:
0<
#475
0:
#476
1:
1<
#477
0:
0<
#478
1:
1<
#479
0:
0<
#480
1:
1<
#481
0:
0<
#482
1:
1<
#483
0:
0<
#484
1:
1<
#485
0:
0<
#486
1:
1<
#487
0:
0<
#488
1:
1<
#489
0:
0<
#490
1:
1<
#491
0:
0<
#492
1:
1<
#493
0<
#494
0:
1<
#495
1:
0<
#496
0:
#497
b10110111 "
1:
1<
#498
0:
0<
#499
1:
1<
#500
0:
0<
#501
b10111000 "
1:
1<
#502
0:
0<
#503
1:
1<
#504
0:
0<
#505
1:
1<
#506
0:
0<
#507
1:
1<
#508
0:
0<
#509
1:
1<
#510
0:
0<
#511
1:
1<
#512
0:
0<
1=
#513
1:
1<
#514
0<
#515
0:
1<
#516
b10110111 "
1:
0<
#517
0:
#518
b10111000 "
1:
1<
#519
0:
0<
#520
1:
1<
#521
0:
0<
#522
b10110110 "
1:
1<
#523
0:
0<
#524
b10111000 "
1:
1<
#525
0:
0<
#526
b10110110 "
1:
1<
#527
0:
0<
#528
1:
1<
#529
0:
0<
#530
b10111000 "
1:
1<
#531
0:
0<
#532
b10110101 "
1:
1<
#533
0:
0<
#534
b10111000 "
1:
1<
#535
0<
#536
0:
1<
#537
1:
0<
#538
0:
#539
b10110011 "
1:
1<
#540
0:
0<
#541
1:
1<
#542
0:
0<
#543
b10110111 "
1:
1<
#544
0:
0<
#545
b10110101 "
1:
1<
#546
0:
0<
#547
1:
1<
#548
0:
0<
#549
b10110111 "
1:
1<
#550
0:
0<
#551
b10110011 "
1:
1<
#552
0:
0<
#553
1:
1<
#554
0:
0<
#555
b10111000 "
1:
1<
#556
0<
#557
0:
1<
#558
1:
0<
#559
0:
#560
b10110110 "
1:
1<
#561
0:
0<
#562
1:
1<
#563
0:
0<
#564
b10110011 "
1:
1<
#565
0:
0<
#566
1:
1<
#567
0:
0<
#568
b10111000 "
1:
1<
#569
0:
0<
#570
1:
1<
#571
0:
0<
#572
b10110111 "
1:
1<
#573
0:
0<
#574
b10110101 "
1:
1<
#575
0:
0<
#576
b10110111 "
1:
1<
#577
0<
#578
0:
1<
#579
b10110101 "
1:
0<
#580
0:
#581
b10111000 "
1:
1<
#582
0:
0<
#583
1:
1<
#584
0:
0<
#585
b10110101 "
1:
1<
#586
0:
0<
#587
1:
1<
#588
0:
0<
#589
b10110010 "
1:
1<
#590
0:
0<
#591
1:
1<
#592
0:
0<
#593
b10110101 "
1:
1<
#594
0:
0<
#595
1:
1<
#596
0:
0<
#597
1:
1<
#598
0<
#599
0:
1<
#600
1:
0<
#601
0:
#602
b10110110 "
1:
1<
#603
0:
0<
#604
1:
1<
#605
0:
0<
#606
b10110101 "
1:
1<
#607
0:
0<
#608
1:
1<
#609
0:
0<
#610
1:
1<
#611
0:
0<
#612
1:
1<
#613
0:
0<
#614
b10110110 "
1:
1<
#615
0:
0<
#616
1:
1<
#617
0:
0<
#618
b10110101 "
1:
1<
#619
0<
#620
0:
1<
#621
b10111000 "
1:
0<
#622
0:
#623
b10110101 "
1:
1<
#624
0:
0<
#625
1:
1<
#626
0:
0<
#627
b10111000 "
1:
1<
#628
0:
0<
#629
1:
1<
#630
0:
0<
#631
b10110101 "
1:
1<
#632
0:
0<
#633
1:
1<
#634
0:
0<
#635
1:
1<
#636
0:
0<
#637
1:
1<
#638
0:
0<
#639
b10110111 "
1:
1<
#640
0<
#641
0:
1<
#642
1:
0<
#643
0:
#644
1:
1<
#645
0:
0<
#646
b0 *
1:
1<
#647
0:
0<
#648
b1111111111111111 *
1:
1<
#649
0:
0<
#650
1:
1<
#651
0:
0<
#652
b10110110 "
1:
1<
#653
0:
0<
#654
1:
1<
#655
0:
0<
#656
b10110101 "
1:
1<
#657
0:
0<
#658
b10110010 "
b0 *
1:
1<
#659
0:
0<
#660
b10110101 "
1:
1<
#661
0<
#662
0:
1<
#663
1:
0<
#664
0:
#665
b10110010 "
1:
1<
#666
0:
0<
#667
b10111000 "
1:
1<
#668
0:
0<
#669
b10110101 "
b1111111111111111 *
1:
1<
#670
0:
0<
#671
b0 *
1:
1<
#672
0:
0<
#673
1:
1<
#674
0:
0<
#675
b10110111 "
1:
1<
#676
0:
0<
#677
b10110101 "
1:
1<
#678
0:
0<
#679
b10111000 "
1:
1<
#680
0:
0<
#681
b10110101 "
b1111111111111111 *
1:
1<
#682
0<
#683
0:
1<
#684
1:
0<
#685
0:
#686
b10110110 "
1:
1<
#687
0:
0<
#688
b0 *
1:
1<
#689
0:
0<
#690
b10110111 "
1:
1<
#691
0:
0<
#692
b1111111111111111 *
1:
1<
#693
0:
0<
#694
b10110101 "
1:
1<
#695
0:
0<
#696
b0 *
1:
1<
#697
0:
0<
#698
b10110010 "
b1111111111111111 *
1:
1<
#699
0:
0<
#700
1:
1<
#701
0:
0<
#702
b10110001 "
1:
1<
#703
0<
#704
0:
1<
#705
1:
0<
#706
0:
#707
b10110000 "
1:
1<
#708
0:
0<
#709
1:
1<
#710
0:
0<
#711
1:
1<
#712
0:
0<
#713
1:
1<
#714
0:
0<
#715
b10101110 "
1:
1<
#716
0:
0<
#717
b0 *
1:
1<
#718
0:
0<
#719
b10101011 "
1:
1<
#720
0:
0<
#721
b10101001 "
1:
1<
#722
0:
0<
#723
b10101011 "
1:
1<
#724
0<
#725
b1111111111111111 *
0:
1<
#726
b10101010 "
1:
0<
#727
0:
#728
b10100101 "
1:
1<
#729
0:
0<
#730
1:
1<
#731
0:
0<
#732
b10100011 "
1:
1<
#733
0:
0<
#734
b10100010 "
1:
1<
#735
0:
0<
#736
b10011100 "
1:
1<
#737
0:
0<
#738
b10011001 "
1:
1<
#739
0:
0<
#740
b10010101 "
1:
1<
#741
0:
0<
#742
b10010000 "
1:
1<
#743
0:
0<
#744
b10001101 "
1:
1<
#745
0<
#746
0:
1<
#747
b10001010 "
1:
0<
#748
0:
#749
b10001000 "
1:
1<
#750
0:
0<
#751
b10000011 "
1:
1<
#752
0:
0<
#753
b10000000 "
1:
1<
#754
0:
0<
#755
b1111110 "
1:
1<
#756
0:
0<
#757
b1111101 "
1:
1<
#758
0:
0<
#759
b1111010 "
1:
1<
#760
0:
0<
#761
b1110110 "
1:
1<
#762
0:
0<
#763
b1110010 "
1:
1<
#764
0:
0<
#765
b1101110 "
1:
1<
#766
0<
#767
0:
1<
#768
1:
0<
#769
0:
#770
b1101011 "
1:
1<
#771
0:
0<
#772
b1100101 "
1:
1<
#773
0:
0<
#774
b1100001 "
1:
1<
#775
0:
0<
#776
b1011101 "
b0 *
1:
1<
#777
0:
0<
#778
b1011010 "
1:
1<
#779
0:
0<
#780
1:
1<
#781
0:
0<
#782
b1010101 "
b1111111111111111 *
1:
1<
#783
0:
0<
#784
1:
1<
#785
0:
0<
#786
1:
1<
#787
0<
#788
0:
1<
#789
1:
0<
#790
0:
#791
b1010011 "
b0 *
1:
1<
#792
0:
0<
#793
b1010001 "
1:
1<
#794
0:
0<
#795
b1011001 "
b1111111111111111 *
1:
1<
#796
0:
0<
#797
b1011110 "
1:
1<
#798
0:
0<
#799
b1100100 "
1:
1<
#800
0:
0<
#801
b1101011 "
1:
1<
#802
0:
0<
#803
b1101110 "
1:
1<
#804
0:
0<
#805
b1110011 "
1:
1<
#806
0:
0<
#807
b1110110 "
1:
1<
#808
0<
#809
0:
1<
#810
b1110100 "
1:
0<
#811
0:
#812
b1101100 "
b0 *
1:
1<
#813
0:
0<
#814
b1100110 "
1:
1<
#815
0:
0<
#816
b1100001 "
b1111111111111111 *
1:
1<
#817
0:
0<
#818
b1011011 "
1:
1<
#819
0:
0<
#820
b1010001 "
1:
1<
#821
0:
0<
#822
b1001110 "
1:
1<
#823
0:
0<
#824
b1000110 "
1:
1<
#825
0:
0<
#826
b1000000 "
1:
1<
#827
0:
0<
#828
b110101 "
1:
1<
#829
0<
#830
0:
1<
#831
1:
0<
#832
0:
#833
b101110 "
b0 *
1:
1<
#834
0:
0<
#835
b1111111111111111 *
1:
1<
#836
0:
0<
#837
b101011 "
1:
1<
#838
0:
0<
#839
1:
1<
#840
0:
0<
#841
b100110 "
1:
1<
#842
0:
0<
#843
1:
1<
#844
0:
0<
#845
1:
1<
#846
0:
0<
#847
1:
1<
#848
0:
0<
#849
b101001 "
1:
1<
#850
0<
#851
0:
1<
#852
b100110 "
1:
0<
#853
0:
#854
b100100 "
1:
1<
#855
0:
0<
#856
b100010 "
1:
1<
#857
0:
0<
#858
b100100 "
b0 *
1:
1<
#859
0:
0<
#860
b1111111111111111 *
1:
1<
#861
0:
0<
#862
1:
1<
#863
0:
0<
#864
1:
1<
#865
0:
0<
#866
b100011 "
1:
1<
#867
0:
0<
#868
1:
1<
#869
0:
0<
#870
b100100 "
b0 *
1:
1<
#871
0<
#872
0:
1<
#873
1:
0<
#874
0:
#875
b100011 "
b1111111111111111 *
1:
1<
#876
0:
0<
#877
b100110 "
1:
1<
#878
0:
0<
#879
b100100 "
1:
1<
#880
0:
0<
#881
1:
1<
#882
0:
0<
#883
b100110 "
1:
1<
#884
0:
0<
#885
b101001 "
1:
1<
#886
0:
0<
#887
b101110 "
1:
1<
#888
0:
0<
#889
b0 *
1:
1<
#890
0:
0<
#891
b1111111111111111 *
1:
1<
#892
0<
#893
0:
1<
#894
b101100 "
1:
0<
#895
0:
#896
b101110 "
1:
1<
#897
0:
0<
#898
b101001 "
1:
1<
#899
0:
0<
#900
b101011 "
1:
1<
#901
0:
0<
#902
b0 *
1:
1<
#903
0:
0<
#904
b101010 "
1:
1<
#905
0:
0<
#906
b101101 "
1:
1<
#907
0:
0<
#908
b101110 "
1:
1<
#909
0:
0<
#910
b101001 "
1:
1<
#911
0:
0<
#912
1:
1<
#913
0<
#914
0:
1<
#915
1:
0<
#916
0:
#917
1:
1<
#918
0:
0<
#919
1:
1<
#920
0:
0<
#921
b101011 "
1:
1<
#922
0:
0<
#923
1:
1<
#924
0:
0<
#925
1:
1<
#926
0:
0<
#927
b101001 "
1:
1<
#928
0:
0<
#929
b100110 "
1:
1<
#930
0:
0<
#931
1:
1<
#932
0:
0<
#933
1:
1<
#934
0<
#935
0:
1<
#936
b101001 "
1:
0<
#937
0:
#938
1:
1<
#939
0:
0<
#940
b101110 "
1:
1<
#941
0:
0<
#942
1:
1<
#943
0:
0<
#944
1:
1<
#945
0:
0<
#946
1:
1<
#947
0:
0<
#948
b101011 "
1:
1<
#949
0:
0<
#950
b101001 "
1:
1<
#951
0:
0<
#952
b101110 "
1:
1<
#953
0:
0<
#954
1:
1<
#955
0<
#956
b1111111111111111 *
0:
1<
#957
1:
0<
#958
0;
#960
1;
#961
1<
#962
0<
